{
  "project_info": {
    "project_number": "580921160989",
    "firebase_url": "https://ibwfirebaseproject.firebaseio.com",
    "project_id": "ibwfirebaseproject",
    "storage_bucket": "ibwfirebaseproject.appspot.com"
  },
  "client": [
    {
      "client_info": {
        "mobilesdk_app_id": "1:580921160989:android:459eb3fe38598b25",
        "android_client_info": {
          "package_name": "ibw.sid.com.ibw"
        }
      },
      "oauth_client": [
        {
          "client_id": "580921160989-e4udptsjd672hvp0p8ttbgbikq7mb1ci.apps.googleusercontent.com",
          "client_type": 1,
          "android_info": {
            "package_name": "ibw.sid.com.ibw",
            "certificate_hash": "436fc43cb3bc719c35d339fcc94e3f23463d2b61"
          }
        },
        {
          "client_id": "580921160989-rdvctqhh32oe7r8clfpa2ados3f73k3p.apps.googleusercontent.com",
          "client_type": 3
        }
      ],
      "api_key": [
        {
          "current_key": "AIzaSyD5EYVrKOhm3lg3Bok8tFpytRs8y685xj0"
        }
      ],
      "services": {
        "analytics_service": {
          "status": 1
        },
        "appinvite_service": {
          "status": 2,
          "other_platform_oauth_client": [
            {
              "client_id": "580921160989-rdvctqhh32oe7r8clfpa2ados3f73k3p.apps.googleusercontent.com",
              "client_type": 3
            }
          ]
        },
        "ads_service": {
          "status": 2
        }
      }
    }
  ],
  "configuration_version": "1"
}